EESchema Schematic File Version 2
LIBS:applix1616-sch
LIBS:power
LIBS:device
LIBS:conn
LIBS:linear
LIBS:regul
LIBS:74xx
LIBS:cmos4000
LIBS:adc-dac
LIBS:memory
LIBS:xilinx
LIBS:special
LIBS:microcontrollers
LIBS:dsp
LIBS:microchip
LIBS:analog_switches
LIBS:motorola
LIBS:texas
LIBS:intel
LIBS:audio
LIBS:interface
LIBS:digital-audio
LIBS:philips
LIBS:display
LIBS:cypress
LIBS:siliconi
LIBS:opto
LIBS:atmel
LIBS:contrib
LIBS:valves
LIBS:onsemi
LIBS:transistors
LIBS:74xgxx
LIBS:ttl_ieee
LIBS:parallax_propeller
LIBS:Lattice
LIBS:applix1616-s00-cache
EELAYER 27 0
EELAYER END
$Descr A4 11693 8268
encoding utf-8
Sheet 2 5
Title ""
Date "26 nov 2017"
Rev ""
Comp ""
Comment1 ""
Comment2 ""
Comment3 ""
Comment4 ""
$EndDescr
$Comp
L DB9 J?
U 1 1 5919B706
P 10550 3550
F 0 "J?" H 10550 4100 70  0000 C CNN
F 1 "DB9" H 10550 3000 70  0000 C CNN
F 2 "" H 10550 3550 60  0000 C CNN
F 3 "" H 10550 3550 60  0000 C CNN
	1    10550 3550
	1    0    0    -1  
$EndComp
$Comp
L GND #PWR?
U 1 1 5919B80A
P 9850 4350
F 0 "#PWR?" H 9850 4350 30  0001 C CNN
F 1 "GND" H 9850 4280 30  0001 C CNN
F 2 "" H 9850 4350 60  0000 C CNN
F 3 "" H 9850 4350 60  0000 C CNN
	1    9850 4350
	1    0    0    -1  
$EndComp
Wire Wire Line
	10100 3750 9850 3750
Wire Wire Line
	9850 3750 9850 4350
Wire Wire Line
	10100 3950 9850 3950
Connection ~ 9850 3950
$Comp
L 74LS298 U3
U 1 1 5919BA29
P 7350 3600
F 0 "U3" H 7350 3550 60  0000 C CNN
F 1 "74LS298" H 7350 3350 60  0000 C CNN
F 2 "~" H 7350 3600 60  0000 C CNN
F 3 "~" H 7350 3600 60  0000 C CNN
	1    7350 3600
	1    0    0    -1  
$EndComp
Wire Wire Line
	10100 3550 9100 3550
Wire Wire Line
	9100 3150 9100 5000
Wire Wire Line
	8050 3150 9100 3150
Wire Wire Line
	8050 3350 10100 3350
Wire Wire Line
	9200 3150 10100 3150
Wire Wire Line
	9000 3750 8050 3750
Wire Wire Line
	8900 3850 10100 3850
Wire Wire Line
	8900 1550 8900 3850
Wire Wire Line
	8050 3550 8900 3550
$Comp
L RR8 RN2
U 1 1 592C31EA
P 8750 1200
F 0 "RN2" H 8800 1750 70  0000 C CNN
F 1 "1K" V 8780 1200 70  0000 C CNN
F 2 "~" H 8750 1200 60  0000 C CNN
F 3 "~" H 8750 1200 60  0000 C CNN
	1    8750 1200
	0    -1   -1   0   
$EndComp
$Comp
L R R3
U 1 1 592C322A
P 8150 4550
F 0 "R3" V 8230 4550 40  0000 C CNN
F 1 "2K2" V 8157 4551 40  0000 C CNN
F 2 "~" V 8080 4550 30  0000 C CNN
F 3 "~" H 8150 4550 30  0000 C CNN
	1    8150 4550
	1    0    0    -1  
$EndComp
$Comp
L R R4
U 1 1 592C3239
P 8300 4550
F 0 "R4" V 8380 4550 40  0000 C CNN
F 1 "4K7" V 8307 4551 40  0000 C CNN
F 2 "~" V 8230 4550 30  0000 C CNN
F 3 "~" H 8300 4550 30  0000 C CNN
	1    8300 4550
	1    0    0    -1  
$EndComp
$Comp
L R R5
U 1 1 592C3248
P 8450 4550
F 0 "R5" V 8530 4550 40  0000 C CNN
F 1 "10K" V 8457 4551 40  0000 C CNN
F 2 "~" V 8380 4550 30  0000 C CNN
F 3 "~" H 8450 4550 30  0000 C CNN
	1    8450 4550
	1    0    0    -1  
$EndComp
$Comp
L R R2
U 1 1 592C3257
P 8600 4550
F 0 "R2" V 8680 4550 40  0000 C CNN
F 1 "18K" V 8607 4551 40  0000 C CNN
F 2 "~" V 8530 4550 30  0000 C CNN
F 3 "~" H 8600 4550 30  0000 C CNN
	1    8600 4550
	1    0    0    -1  
$EndComp
Connection ~ 8900 3550
Wire Wire Line
	9000 1550 9000 3750
Wire Wire Line
	8800 1550 8800 3350
Connection ~ 8800 3350
Wire Wire Line
	8700 1550 8700 3150
Connection ~ 8700 3150
Wire Wire Line
	8150 4300 8150 3150
Connection ~ 8150 3150
Wire Wire Line
	8300 4300 8300 3350
Connection ~ 8300 3350
Wire Wire Line
	8450 4300 8450 3550
Connection ~ 8450 3550
Wire Wire Line
	8600 4300 8600 3750
Connection ~ 8600 3750
Wire Wire Line
	8600 5000 8600 4800
Wire Wire Line
	8150 5000 8600 5000
Wire Wire Line
	8150 4800 8150 6100
Wire Wire Line
	8300 4800 8300 5000
Connection ~ 8300 5000
Wire Wire Line
	8450 4800 8450 5000
Connection ~ 8450 5000
$Comp
L BC817-40 Q1
U 1 1 593E90E7
P 9100 6050
F 0 "Q1" H 9100 5901 40  0000 R CNN
F 1 "BC817-40" H 9100 6200 40  0000 R CNN
F 2 "SOT-23" H 8900 6152 29  0000 C CNN
F 3 "" H 9100 6050 60  0000 C CNN
	1    9100 6050
	1    0    0    -1  
$EndComp
$Comp
L R R8
U 1 1 593E93A3
P 9200 6600
F 0 "R8" V 9280 6600 40  0000 C CNN
F 1 "330R" V 9207 6601 40  0000 C CNN
F 2 "~" V 9130 6600 30  0000 C CNN
F 3 "~" H 9200 6600 30  0000 C CNN
	1    9200 6600
	1    0    0    -1  
$EndComp
$Comp
L R R7
U 1 1 593E93E8
P 8700 6600
F 0 "R7" V 8780 6600 40  0000 C CNN
F 1 "2k2" V 8707 6601 40  0000 C CNN
F 2 "~" V 8630 6600 30  0000 C CNN
F 3 "~" H 8700 6600 30  0000 C CNN
	1    8700 6600
	1    0    0    -1  
$EndComp
$Comp
L R R6
U 1 1 593E93F7
P 8700 5700
F 0 "R6" V 8780 5700 40  0000 C CNN
F 1 "2k2" V 8707 5701 40  0000 C CNN
F 2 "~" V 8630 5700 30  0000 C CNN
F 3 "~" H 8700 5700 30  0000 C CNN
	1    8700 5700
	1    0    0    -1  
$EndComp
$Comp
L R R9
U 1 1 593E9459
P 9700 6300
F 0 "R9" V 9780 6300 40  0000 C CNN
F 1 "68R" V 9707 6301 40  0000 C CNN
F 2 "~" V 9630 6300 30  0000 C CNN
F 3 "~" H 9700 6300 30  0000 C CNN
	1    9700 6300
	0    1    1    0   
$EndComp
Wire Wire Line
	9200 6250 9200 6350
Wire Wire Line
	9450 6300 9200 6300
Connection ~ 9200 6300
$Comp
L GND #PWR?
U 1 1 593E9529
P 8950 7050
F 0 "#PWR?" H 8950 7050 30  0001 C CNN
F 1 "GND" H 8950 6980 30  0001 C CNN
F 2 "" H 8950 7050 60  0000 C CNN
F 3 "" H 8950 7050 60  0000 C CNN
	1    8950 7050
	1    0    0    -1  
$EndComp
Wire Wire Line
	8700 6850 8700 6950
Wire Wire Line
	8700 6950 9200 6950
Wire Wire Line
	9200 6950 9200 6850
Wire Wire Line
	8950 7050 8950 6950
Connection ~ 8950 6950
Wire Wire Line
	8700 5950 8700 6350
Wire Wire Line
	8900 6050 8700 6050
Connection ~ 8700 6050
$Comp
L VCC #PWR?
U 1 1 593E9604
P 9200 5300
F 0 "#PWR?" H 9200 5400 30  0001 C CNN
F 1 "VCC" H 9200 5400 30  0000 C CNN
F 2 "" H 9200 5300 60  0000 C CNN
F 3 "" H 9200 5300 60  0000 C CNN
	1    9200 5300
	1    0    0    -1  
$EndComp
Wire Wire Line
	9200 5300 9200 5850
Wire Wire Line
	8700 5450 8700 5400
Wire Wire Line
	8700 5400 9200 5400
Connection ~ 9200 5400
Wire Wire Line
	7800 6100 8700 6100
Connection ~ 8150 5000
Connection ~ 8700 6100
Wire Wire Line
	9200 3150 9200 3000
Wire Wire Line
	9200 3000 9000 3000
Connection ~ 9000 3000
Wire Wire Line
	10100 3450 9300 3450
Wire Wire Line
	9300 3450 9300 2000
Wire Wire Line
	9300 2000 1250 2000
Wire Wire Line
	10100 3250 9400 3250
Wire Wire Line
	9400 3250 9400 1900
Wire Wire Line
	9400 1900 1250 1900
$Comp
L JUMPER3 JP?
U 1 1 593E99AB
P 10300 5000
F 0 "JP?" H 10350 4900 40  0000 L CNN
F 1 "JUMPER3" H 10300 5100 40  0000 C CNN
F 2 "~" H 10300 5000 60  0000 C CNN
F 3 "~" H 10300 5000 60  0000 C CNN
	1    10300 5000
	-1   0    0    1   
$EndComp
Wire Wire Line
	9100 5000 10050 5000
Connection ~ 9100 3550
Wire Wire Line
	10100 3650 9200 3650
Wire Wire Line
	9200 3650 9200 4550
Wire Wire Line
	9200 4550 10300 4550
Wire Wire Line
	10300 4550 10300 4900
Wire Wire Line
	9950 6300 10850 6300
Wire Wire Line
	10850 6300 10850 5000
Wire Wire Line
	10850 5000 10550 5000
$Comp
L 74LS05 U61
U 6 1 5947B4C4
P 7350 6100
F 0 "U61" H 7545 6215 60  0000 C CNN
F 1 "74LS05" H 7540 5975 60  0000 C CNN
F 2 "~" H 7350 6100 60  0000 C CNN
F 3 "~" H 7350 6100 60  0000 C CNN
	6    7350 6100
	1    0    0    -1  
$EndComp
Connection ~ 8150 6100
$Comp
L PAL16R8 U5
U 1 1 5947BB5C
P 3400 4450
F 0 "U5" H 3450 5000 60  0000 C CNN
F 1 "PAL16R8" H 3450 3900 60  0000 C CNN
F 2 "" H 3400 4450 60  0000 C CNN
F 3 "" H 3400 4450 60  0000 C CNN
	1    3400 4450
	1    0    0    -1  
$EndComp
$Comp
L 74LS670 U4
U 1 1 5947BBA7
P 4950 3250
F 0 "U4" H 5000 3250 60  0000 C CNN
F 1 "74LS670" H 5000 3000 60  0000 C CNN
F 2 "~" H 4950 3250 60  0000 C CNN
F 3 "~" H 4950 3250 60  0000 C CNN
	1    4950 3250
	1    0    0    -1  
$EndComp
Wire Wire Line
	5650 2750 5900 2750
Wire Wire Line
	5900 2750 5900 3650
Wire Wire Line
	5900 3650 6650 3650
Wire Wire Line
	5650 2850 5800 2850
Wire Wire Line
	5800 2850 5800 3850
Wire Wire Line
	5800 3850 6650 3850
Wire Wire Line
	5650 2950 6000 2950
Wire Wire Line
	5650 3050 6100 3050
Wire Wire Line
	6100 3050 6100 3250
Wire Wire Line
	6100 3250 6650 3250
Wire Wire Line
	6650 3450 6000 3450
Wire Wire Line
	6000 3450 6000 2950
Wire Wire Line
	4000 4200 4100 4200
Wire Wire Line
	4100 4200 4100 3650
Wire Wire Line
	4100 3650 4250 3650
Wire Wire Line
	4000 4300 4150 4300
Wire Wire Line
	4150 4300 4150 3550
Wire Wire Line
	4150 3550 4250 3550
Wire Wire Line
	4000 4700 6000 4700
Wire Wire Line
	6000 4700 6000 3550
Wire Wire Line
	6000 3550 6650 3550
Wire Wire Line
	4000 4600 5900 4600
Wire Wire Line
	5900 4600 5900 3750
Wire Wire Line
	5900 3750 6650 3750
Wire Wire Line
	4000 4500 6100 4500
Wire Wire Line
	6100 4500 6100 3350
Wire Wire Line
	6100 3350 6650 3350
Wire Wire Line
	4000 4400 6200 4400
Wire Wire Line
	6200 4400 6200 3150
Wire Wire Line
	6200 3150 6650 3150
Wire Wire Line
	4000 4000 6650 4000
Wire Wire Line
	4000 4100 4250 4100
Text HLabel 1250 5600 0    60   Input ~ 0
15MHZ
Wire Wire Line
	1250 5600 6300 5600
Wire Wire Line
	6300 5600 6300 4100
Wire Wire Line
	6300 4100 6650 4100
Text HLabel 1250 3750 0    60   Input ~ 0
-WRPAL
Wire Wire Line
	1250 3750 4250 3750
Wire Wire Line
	2800 4800 1250 4800
Wire Wire Line
	1250 4700 2800 4700
Wire Wire Line
	1250 4600 2800 4600
Wire Wire Line
	1250 4500 2800 4500
Text HLabel 1250 5200 0    60   Output ~ 0
7.5MHZ
Wire Wire Line
	1250 5200 4250 5200
Wire Wire Line
	4250 5200 4250 4100
Text HLabel 1250 4500 0    60   Input ~ 0
BC3
Text HLabel 1250 4600 0    60   Input ~ 0
BC2
Text HLabel 1250 4700 0    60   Input ~ 0
BC1
Text HLabel 1250 4800 0    60   Input ~ 0
BC0
Text HLabel 1250 4000 0    60   Input ~ 0
-15MHZ
Wire Wire Line
	1250 4000 2800 4000
Text HLabel 1250 4100 0    60   Input ~ 0
EN640
Wire Wire Line
	2800 4100 1250 4100
Text HLabel 1250 4200 0    60   Input ~ 0
DISP
Wire Wire Line
	2800 4200 1250 4200
Text HLabel 1250 4300 0    60   Input ~ 0
VD1
Text HLabel 1250 4400 0    60   Input ~ 0
VD0
Wire Wire Line
	2800 4300 1250 4300
Wire Wire Line
	1250 4400 2800 4400
$Comp
L GND #PWR?
U 1 1 5947CAE1
P 2650 5000
F 0 "#PWR?" H 2650 5000 30  0001 C CNN
F 1 "GND" H 2650 4930 30  0001 C CNN
F 2 "" H 2650 5000 60  0000 C CNN
F 3 "" H 2650 5000 60  0000 C CNN
	1    2650 5000
	1    0    0    -1  
$EndComp
Wire Wire Line
	2800 4900 2650 4900
Wire Wire Line
	2650 4900 2650 5000
$Comp
L VCC #PWR?
U 1 1 5947CB68
P 4000 2450
F 0 "#PWR?" H 4000 2550 30  0001 C CNN
F 1 "VCC" H 4000 2550 30  0000 C CNN
F 2 "" H 4000 2450 60  0000 C CNN
F 3 "" H 4000 2450 60  0000 C CNN
	1    4000 2450
	1    0    0    -1  
$EndComp
Wire Wire Line
	4250 3400 4000 3400
Wire Wire Line
	4000 3400 4000 2450
Wire Bus Line
	3350 2650 3350 2950
Wire Bus Line
	3350 2650 1250 2650
Entry Wire Line
	3350 2950 3450 3050
Entry Wire Line
	3350 2850 3450 2950
Entry Wire Line
	3350 2750 3450 2850
Entry Wire Line
	3350 2650 3450 2750
Wire Wire Line
	4250 3050 3450 3050
Wire Wire Line
	3450 2950 4250 2950
Wire Wire Line
	4250 2850 3450 2850
Wire Wire Line
	3450 2750 4250 2750
Text HLabel 1250 2650 0    60   BiDi ~ 0
D[0..15]
Text Label 3550 2750 0    60   ~ 0
D8
Text Label 3550 2850 0    60   ~ 0
D9
Text Label 3550 2950 0    60   ~ 0
D10
Text Label 3550 3050 0    60   ~ 0
D11
Wire Bus Line
	3350 3200 3350 3400
Wire Bus Line
	3350 3400 1250 3400
Text HLabel 1250 3400 0    60   Input ~ 0
A[1..21]
Entry Wire Line
	3350 3300 3450 3200
Entry Wire Line
	3350 3400 3450 3300
Wire Wire Line
	3450 3200 4250 3200
Wire Wire Line
	3450 3300 4250 3300
Text Label 3550 3200 0    60   ~ 0
A5
Text Label 3550 3300 0    60   ~ 0
A6
Text HLabel 1250 6100 0    60   Input ~ 0
CSYNC
Wire Wire Line
	6900 6100 1250 6100
Text HLabel 1250 1900 0    60   Input ~ 0
VSOUT
Text HLabel 1250 2000 0    60   Input ~ 0
CSOUT
$Comp
L VCC #PWR?
U 1 1 5947D111
P 7300 900
F 0 "#PWR?" H 7300 1000 30  0001 C CNN
F 1 "VCC" H 7300 1000 30  0000 C CNN
F 2 "" H 7300 900 60  0000 C CNN
F 3 "" H 7300 900 60  0000 C CNN
	1    7300 900 
	1    0    0    -1  
$EndComp
Wire Wire Line
	8300 1550 8300 1700
Wire Wire Line
	8300 1700 7300 1700
Wire Wire Line
	7300 1700 7300 900 
Text Label 9750 3550 0    60   ~ 0
RED
Text Label 9750 3350 0    60   ~ 0
GRN
Text Label 9750 3150 0    60   ~ 0
BLUE
Text Label 9350 3850 0    60   ~ 0
INTENCITY
Text Label 9350 3650 0    60   ~ 0
CVIDEO
Text Label 9350 3450 0    60   ~ 0
CSYNC
Text Label 9450 3250 0    60   ~ 0
VSYNC
$EndSCHEMATC
