EESchema Schematic File Version 2
LIBS:applix1616-sch
LIBS:power
LIBS:device
LIBS:conn
LIBS:linear
LIBS:regul
LIBS:74xx
LIBS:cmos4000
LIBS:adc-dac
LIBS:memory
LIBS:xilinx
LIBS:special
LIBS:microcontrollers
LIBS:dsp
LIBS:microchip
LIBS:analog_switches
LIBS:motorola
LIBS:texas
LIBS:intel
LIBS:audio
LIBS:interface
LIBS:digital-audio
LIBS:philips
LIBS:display
LIBS:cypress
LIBS:siliconi
LIBS:opto
LIBS:atmel
LIBS:contrib
LIBS:valves
LIBS:onsemi
LIBS:transistors
LIBS:74xgxx
LIBS:ttl_ieee
LIBS:parallax_propeller
LIBS:Lattice
LIBS:applix1616-s00-cache
EELAYER 27 0
EELAYER END
$Descr A4 11693 8268
encoding utf-8
Sheet 4 5
Title ""
Date "26 nov 2017"
Rev ""
Comp ""
Comment1 ""
Comment2 ""
Comment3 ""
Comment4 ""
$EndDescr
$Comp
L 41256 U?
U 1 1 5A1A520D
P 2600 1950
AR Path="/5A18366A/5A1A5200/5A1A520D" Ref="U?"  Part="1" 
AR Path="/5A18366A/5A1A5204/5A1A520D" Ref="U?"  Part="1" 
F 0 "U?" H 2500 2900 60  0000 C CNN
F 1 "41256" H 2600 1100 60  0000 C CNN
F 2 "~" H 2600 2600 60  0000 C CNN
F 3 "~" H 2600 2600 60  0000 C CNN
	1    2600 1950
	1    0    0    -1  
$EndComp
$Comp
L 41256 U?
U 1 1 5A1A521C
P 4750 1950
AR Path="/5A18366A/5A1A5200/5A1A521C" Ref="U?"  Part="1" 
AR Path="/5A18366A/5A1A5204/5A1A521C" Ref="U?"  Part="1" 
F 0 "U?" H 4650 2900 60  0000 C CNN
F 1 "41256" H 4750 1100 60  0000 C CNN
F 2 "~" H 4750 2600 60  0000 C CNN
F 3 "~" H 4750 2600 60  0000 C CNN
	1    4750 1950
	1    0    0    -1  
$EndComp
$Comp
L 41256 U?
U 1 1 5A1A522B
P 6950 1950
AR Path="/5A18366A/5A1A5200/5A1A522B" Ref="U?"  Part="1" 
AR Path="/5A18366A/5A1A5204/5A1A522B" Ref="U?"  Part="1" 
F 0 "U?" H 6850 2900 60  0000 C CNN
F 1 "41256" H 6950 1100 60  0000 C CNN
F 2 "~" H 6950 2600 60  0000 C CNN
F 3 "~" H 6950 2600 60  0000 C CNN
	1    6950 1950
	1    0    0    -1  
$EndComp
$Comp
L 41256 U?
U 1 1 5A1A523A
P 9100 1950
AR Path="/5A18366A/5A1A5200/5A1A523A" Ref="U?"  Part="1" 
AR Path="/5A18366A/5A1A5204/5A1A523A" Ref="U?"  Part="1" 
F 0 "U?" H 9000 2900 60  0000 C CNN
F 1 "41256" H 9100 1100 60  0000 C CNN
F 2 "~" H 9100 2600 60  0000 C CNN
F 3 "~" H 9100 2600 60  0000 C CNN
	1    9100 1950
	1    0    0    -1  
$EndComp
$Comp
L 41256 U?
U 1 1 5A1A5258
P 2600 5600
AR Path="/5A18366A/5A1A5200/5A1A5258" Ref="U?"  Part="1" 
AR Path="/5A18366A/5A1A5204/5A1A5258" Ref="U?"  Part="1" 
F 0 "U?" H 2500 6550 60  0000 C CNN
F 1 "41256" H 2600 4750 60  0000 C CNN
F 2 "~" H 2600 6250 60  0000 C CNN
F 3 "~" H 2600 6250 60  0000 C CNN
	1    2600 5600
	1    0    0    -1  
$EndComp
$Comp
L 41256 U?
U 1 1 5A1A5267
P 4750 5600
AR Path="/5A18366A/5A1A5200/5A1A5267" Ref="U?"  Part="1" 
AR Path="/5A18366A/5A1A5204/5A1A5267" Ref="U?"  Part="1" 
F 0 "U?" H 4650 6550 60  0000 C CNN
F 1 "41256" H 4750 4750 60  0000 C CNN
F 2 "~" H 4750 6250 60  0000 C CNN
F 3 "~" H 4750 6250 60  0000 C CNN
	1    4750 5600
	1    0    0    -1  
$EndComp
$Comp
L 41256 U?
U 1 1 5A1A5276
P 6950 5600
AR Path="/5A18366A/5A1A5200/5A1A5276" Ref="U?"  Part="1" 
AR Path="/5A18366A/5A1A5204/5A1A5276" Ref="U?"  Part="1" 
F 0 "U?" H 6850 6550 60  0000 C CNN
F 1 "41256" H 6950 4750 60  0000 C CNN
F 2 "~" H 6950 6250 60  0000 C CNN
F 3 "~" H 6950 6250 60  0000 C CNN
	1    6950 5600
	1    0    0    -1  
$EndComp
$Comp
L 41256 U?
U 1 1 5A1A5285
P 9100 5600
AR Path="/5A18366A/5A1A5200/5A1A5285" Ref="U?"  Part="1" 
AR Path="/5A18366A/5A1A5204/5A1A5285" Ref="U?"  Part="1" 
F 0 "U?" H 9000 6550 60  0000 C CNN
F 1 "41256" H 9100 4750 60  0000 C CNN
F 2 "~" H 9100 6250 60  0000 C CNN
F 3 "~" H 9100 6250 60  0000 C CNN
	1    9100 5600
	1    0    0    -1  
$EndComp
Text HLabel 1050 800  0    60   Input ~ 0
D[0..7]
Wire Bus Line
	1050 800  1250 800 
Wire Bus Line
	1250 800  1250 4700
Entry Wire Line
	1250 4650 1350 4750
Wire Wire Line
	2100 4750 1350 4750
Wire Bus Line
	1250 3750 8150 3750
Wire Bus Line
	8150 3750 8150 4650
Entry Wire Line
	8150 4650 8250 4750
Wire Wire Line
	8600 4750 8250 4750
Wire Bus Line
	5800 4650 5800 3750
Wire Bus Line
	3650 4650 3650 3750
Entry Wire Line
	3650 4650 3750 4750
Entry Wire Line
	5800 4650 5900 4750
Wire Wire Line
	6450 4750 5900 4750
Wire Wire Line
	3750 4750 4250 4750
Wire Bus Line
	3700 1100 3700 3750
Wire Bus Line
	5850 1100 5850 3750
Wire Bus Line
	8100 1100 8100 3750
Entry Wire Line
	3700 1200 3800 1100
Entry Wire Line
	5850 1200 5950 1100
Entry Wire Line
	8100 1200 8200 1100
Entry Wire Line
	1250 1200 1350 1100
Wire Wire Line
	2100 1100 1350 1100
Wire Wire Line
	3800 1100 4250 1100
Wire Wire Line
	5950 1100 6450 1100
Wire Wire Line
	8200 1100 8600 1100
Text Label 1400 1100 0    60   ~ 0
D0
Text Label 3900 1100 0    60   ~ 0
D1
Text Label 6050 1100 0    60   ~ 0
D2
Text Label 8300 1100 0    60   ~ 0
D3
Text Label 1400 4750 0    60   ~ 0
D4
Text Label 3850 4750 0    60   ~ 0
D5
Text Label 5950 4750 0    60   ~ 0
D6
Text Label 8300 4750 0    60   ~ 0
D7
Text HLabel 750  1300 0    60   Input ~ 0
W
Text HLabel 750  1400 0    60   Input ~ 0
RAS
Text HLabel 750  1500 0    60   Input ~ 0
CAS
Text HLabel 950  3450 0    60   Input ~ 0
RA[0..8]
Wire Bus Line
	8200 3450 950  3450
Wire Bus Line
	1500 1800 1500 3450
Wire Bus Line
	3800 1800 3800 3450
Wire Bus Line
	6000 1800 6000 3450
Wire Bus Line
	8200 1800 8200 3450
Entry Wire Line
	1500 1800 1600 1700
Entry Wire Line
	1500 1900 1600 1800
Entry Wire Line
	1500 2000 1600 1900
Entry Wire Line
	1500 2100 1600 2000
Entry Wire Line
	1500 2200 1600 2100
Entry Wire Line
	1500 2300 1600 2200
Entry Wire Line
	1500 2400 1600 2300
Entry Wire Line
	1500 2500 1600 2400
Entry Wire Line
	1500 2600 1600 2500
Wire Wire Line
	2100 1700 1600 1700
Wire Wire Line
	2100 1800 1600 1800
Wire Wire Line
	2100 1900 1600 1900
Wire Wire Line
	2100 2000 1600 2000
Wire Wire Line
	2100 2100 1600 2100
Wire Wire Line
	2100 2200 1600 2200
Wire Wire Line
	2100 2300 1600 2300
Wire Wire Line
	2100 2400 1600 2400
Wire Wire Line
	2100 2500 1600 2500
Wire Wire Line
	750  1300 2100 1300
Wire Wire Line
	750  1400 2100 1400
Wire Wire Line
	750  1500 2100 1500
Text Label 1650 1700 0    60   ~ 0
RA0
Text Label 1650 1800 0    60   ~ 0
RA1
Text Label 1650 1900 0    60   ~ 0
RA2
Text Label 1650 2000 0    60   ~ 0
RA3
Text Label 1650 2100 0    60   ~ 0
RA4
Text Label 1650 2200 0    60   ~ 0
RA5
Text Label 1650 2300 0    60   ~ 0
RA6
Text Label 1650 2400 0    60   ~ 0
RA7
Text Label 1650 2500 0    60   ~ 0
RA8
$Comp
L GND #PWR?
U 1 1 5A1A5C78
P 1850 2950
F 0 "#PWR?" H 1850 2950 30  0001 C CNN
F 1 "GND" H 1850 2880 30  0001 C CNN
F 2 "" H 1850 2950 60  0000 C CNN
F 3 "" H 1850 2950 60  0000 C CNN
	1    1850 2950
	1    0    0    -1  
$EndComp
$Comp
L VCC #PWR?
U 1 1 5A1A5C87
P 3200 2400
F 0 "#PWR?" H 3200 2500 30  0001 C CNN
F 1 "VCC" H 3200 2500 30  0000 C CNN
F 2 "" H 3200 2400 60  0000 C CNN
F 3 "" H 3200 2400 60  0000 C CNN
	1    3200 2400
	1    0    0    -1  
$EndComp
Wire Wire Line
	2100 2700 1850 2700
Wire Wire Line
	1850 2700 1850 2950
Wire Wire Line
	3100 2700 3200 2700
Wire Wire Line
	3200 2700 3200 2400
Wire Bus Line
	3550 1000 3550 800 
Wire Bus Line
	3550 800  10700 800 
Text HLabel 10700 800  2    60   Output ~ 0
VID[0..7]
Wire Bus Line
	10150 800  10150 4650
Wire Bus Line
	8000 800  8000 1000
Wire Bus Line
	5750 800  5750 1000
Entry Wire Line
	3450 1100 3550 1000
Entry Wire Line
	5650 1100 5750 1000
Entry Wire Line
	7900 1100 8000 1000
Entry Wire Line
	10050 1100 10150 1000
Wire Wire Line
	3100 1100 3450 1100
Wire Wire Line
	5250 1100 5650 1100
Wire Wire Line
	7450 1100 7900 1100
Wire Wire Line
	9600 1100 10050 1100
Text Label 3450 1100 2    60   ~ 0
VID0
Text Label 5650 1100 2    60   ~ 0
VID1
Text Label 7900 1100 2    60   ~ 0
VID2
Text Label 10050 1100 2    60   ~ 0
VID3
Wire Wire Line
	4250 1300 3300 1300
Wire Wire Line
	3300 1300 3300 3050
Wire Wire Line
	1150 3050 7750 3050
Wire Wire Line
	1150 1300 1150 6750
Connection ~ 1150 1300
Wire Wire Line
	4250 1400 3350 1400
Wire Wire Line
	3350 1400 3350 3100
Wire Wire Line
	1100 3100 7800 3100
Wire Wire Line
	1100 1400 1100 6800
Connection ~ 1100 1400
Wire Wire Line
	4250 1500 3400 1500
Wire Wire Line
	3400 1500 3400 3150
Wire Wire Line
	1050 3150 7850 3150
Wire Wire Line
	1050 1500 1050 6850
Connection ~ 1050 1500
Entry Wire Line
	3800 1800 3900 1700
Entry Wire Line
	3800 1900 3900 1800
Entry Wire Line
	3800 2000 3900 1900
Entry Wire Line
	3800 2100 3900 2000
Entry Wire Line
	3800 2200 3900 2100
Entry Wire Line
	3800 2300 3900 2200
Entry Wire Line
	3800 2400 3900 2300
Entry Wire Line
	3800 2500 3900 2400
Entry Wire Line
	3800 2600 3900 2500
Wire Wire Line
	4250 1700 3900 1700
Wire Wire Line
	4250 1800 3900 1800
Wire Wire Line
	4250 1900 3900 1900
Wire Wire Line
	4250 2000 3900 2000
Wire Wire Line
	4250 2100 3900 2100
Wire Wire Line
	4250 2200 3900 2200
Wire Wire Line
	4250 2300 3900 2300
Wire Wire Line
	4250 2400 3900 2400
Wire Wire Line
	4250 2500 3900 2500
Text Label 4100 1700 2    60   ~ 0
RA0
Text Label 4100 1800 2    60   ~ 0
RA1
Text Label 4100 1900 2    60   ~ 0
RA2
Text Label 4100 2000 2    60   ~ 0
RA3
Text Label 4100 2100 2    60   ~ 0
RA4
Text Label 4100 2200 2    60   ~ 0
RA5
Text Label 4100 2300 2    60   ~ 0
RA6
Text Label 4100 2400 2    60   ~ 0
RA7
Text Label 4100 2500 2    60   ~ 0
RA8
$Comp
L GND #PWR?
U 1 1 5A1A62E2
P 4150 2950
F 0 "#PWR?" H 4150 2950 30  0001 C CNN
F 1 "GND" H 4150 2880 30  0001 C CNN
F 2 "" H 4150 2950 60  0000 C CNN
F 3 "" H 4150 2950 60  0000 C CNN
	1    4150 2950
	1    0    0    -1  
$EndComp
$Comp
L VCC #PWR?
U 1 1 5A1A62F1
P 5400 2350
F 0 "#PWR?" H 5400 2450 30  0001 C CNN
F 1 "VCC" H 5400 2450 30  0000 C CNN
F 2 "" H 5400 2350 60  0000 C CNN
F 3 "" H 5400 2350 60  0000 C CNN
	1    5400 2350
	1    0    0    -1  
$EndComp
Wire Wire Line
	4250 2700 4150 2700
Wire Wire Line
	4150 2700 4150 2950
Wire Wire Line
	5250 2700 5400 2700
Wire Wire Line
	5400 2700 5400 2350
Wire Wire Line
	5500 3050 5500 1300
Wire Wire Line
	5500 1300 6450 1300
Connection ~ 3300 3050
Wire Wire Line
	5550 3100 5550 1400
Wire Wire Line
	5550 1400 6450 1400
Connection ~ 3350 3100
Wire Wire Line
	5600 3150 5600 1500
Wire Wire Line
	5600 1500 6450 1500
Connection ~ 3400 3150
Entry Wire Line
	6000 1800 6100 1700
Entry Wire Line
	6000 1900 6100 1800
Entry Wire Line
	6000 2000 6100 1900
Entry Wire Line
	6000 2100 6100 2000
Entry Wire Line
	6000 2200 6100 2100
Entry Wire Line
	6000 2300 6100 2200
Entry Wire Line
	6000 2400 6100 2300
Entry Wire Line
	6000 2500 6100 2400
Entry Wire Line
	6000 2600 6100 2500
Wire Wire Line
	6450 1700 6100 1700
Wire Wire Line
	6450 1800 6100 1800
Wire Wire Line
	6450 1900 6100 1900
Wire Wire Line
	6450 2000 6100 2000
Wire Wire Line
	6450 2100 6100 2100
Wire Wire Line
	6450 2200 6100 2200
Wire Wire Line
	6450 2300 6100 2300
Wire Wire Line
	6450 2400 6100 2400
Wire Wire Line
	6450 2500 6100 2500
Text Label 6300 1700 2    60   ~ 0
RA0
Text Label 6300 1800 2    60   ~ 0
RA1
Text Label 6300 1900 2    60   ~ 0
RA2
Text Label 6300 2000 2    60   ~ 0
RA3
Text Label 6300 2100 2    60   ~ 0
RA4
Text Label 6300 2200 2    60   ~ 0
RA5
Text Label 6300 2300 2    60   ~ 0
RA6
Text Label 6300 2400 2    60   ~ 0
RA7
Text Label 6300 2500 2    60   ~ 0
RA8
$Comp
L GND #PWR?
U 1 1 5A1A6803
P 6300 2950
F 0 "#PWR?" H 6300 2950 30  0001 C CNN
F 1 "GND" H 6300 2880 30  0001 C CNN
F 2 "" H 6300 2950 60  0000 C CNN
F 3 "" H 6300 2950 60  0000 C CNN
	1    6300 2950
	1    0    0    -1  
$EndComp
$Comp
L VCC #PWR?
U 1 1 5A1A6812
P 7650 2450
F 0 "#PWR?" H 7650 2550 30  0001 C CNN
F 1 "VCC" H 7650 2550 30  0000 C CNN
F 2 "" H 7650 2450 60  0000 C CNN
F 3 "" H 7650 2450 60  0000 C CNN
	1    7650 2450
	1    0    0    -1  
$EndComp
Wire Wire Line
	6450 2700 6300 2700
Wire Wire Line
	6300 2700 6300 2950
Wire Wire Line
	7450 2700 7650 2700
Wire Wire Line
	7650 2700 7650 2450
Entry Wire Line
	8200 1800 8300 1700
Entry Wire Line
	8200 1900 8300 1800
Entry Wire Line
	8200 2000 8300 1900
Entry Wire Line
	8200 2100 8300 2000
Entry Wire Line
	8200 2200 8300 2100
Entry Wire Line
	8200 2300 8300 2200
Entry Wire Line
	8200 2400 8300 2300
Entry Wire Line
	8200 2500 8300 2400
Entry Wire Line
	8200 2600 8300 2500
Wire Wire Line
	7750 3050 7750 1300
Wire Wire Line
	7750 1300 8600 1300
Connection ~ 5500 3050
Wire Wire Line
	7800 3100 7800 1400
Wire Wire Line
	7800 1400 8600 1400
Connection ~ 5550 3100
Wire Wire Line
	7850 3150 7850 1500
Wire Wire Line
	7850 1500 8600 1500
Connection ~ 5600 3150
Wire Wire Line
	8300 1700 8600 1700
Wire Wire Line
	8300 1800 8600 1800
Wire Wire Line
	8300 1900 8600 1900
Wire Wire Line
	8300 2000 8600 2000
Wire Wire Line
	8300 2100 8600 2100
Wire Wire Line
	8300 2200 8600 2200
Wire Wire Line
	8300 2300 8600 2300
Wire Wire Line
	8300 2400 8600 2400
Wire Wire Line
	8300 2500 8600 2500
Text Label 8500 1700 2    60   ~ 0
RA0
Text Label 8500 1800 2    60   ~ 0
RA1
Text Label 8500 1900 2    60   ~ 0
RA2
Text Label 8500 2000 2    60   ~ 0
RA3
Text Label 8500 2100 2    60   ~ 0
RA4
Text Label 8500 2200 2    60   ~ 0
RA5
Text Label 8500 2300 2    60   ~ 0
RA6
Text Label 8500 2400 2    60   ~ 0
RA7
Text Label 8500 2500 2    60   ~ 0
RA8
$Comp
L GND #PWR?
U 1 1 5A1A6E6E
P 8450 2950
F 0 "#PWR?" H 8450 2950 30  0001 C CNN
F 1 "GND" H 8450 2880 30  0001 C CNN
F 2 "" H 8450 2950 60  0000 C CNN
F 3 "" H 8450 2950 60  0000 C CNN
	1    8450 2950
	1    0    0    -1  
$EndComp
$Comp
L VCC #PWR?
U 1 1 5A1A6E7D
P 9750 2400
F 0 "#PWR?" H 9750 2500 30  0001 C CNN
F 1 "VCC" H 9750 2500 30  0000 C CNN
F 2 "" H 9750 2400 60  0000 C CNN
F 3 "" H 9750 2400 60  0000 C CNN
	1    9750 2400
	1    0    0    -1  
$EndComp
Wire Wire Line
	8600 2700 8450 2700
Wire Wire Line
	8450 2700 8450 2950
Wire Wire Line
	9600 2700 9750 2700
Wire Wire Line
	9750 2700 9750 2400
Wire Wire Line
	1150 4950 2100 4950
Connection ~ 1150 3050
Wire Wire Line
	1100 5050 2100 5050
Connection ~ 1100 3100
Wire Wire Line
	1050 5150 2100 5150
Connection ~ 1050 3150
Wire Bus Line
	3550 4650 3550 4050
Wire Bus Line
	3550 4050 10150 4050
Wire Bus Line
	5700 4650 5700 4050
Wire Bus Line
	8050 4650 8050 4050
Wire Bus Line
	8050 4050 8100 4050
Entry Wire Line
	3450 4750 3550 4650
Entry Wire Line
	5600 4750 5700 4650
Entry Wire Line
	7950 4750 8050 4650
Entry Wire Line
	10050 4750 10150 4650
Wire Wire Line
	3100 4750 3450 4750
Wire Wire Line
	5250 4750 5600 4750
Wire Wire Line
	7450 4750 7950 4750
Wire Wire Line
	9600 4750 10050 4750
Wire Bus Line
	1550 3450 1550 7150
Wire Bus Line
	1550 7150 8200 7150
Wire Bus Line
	8200 7150 8200 5450
Wire Bus Line
	3800 5450 3800 7150
Wire Bus Line
	6000 5450 6000 7150
Entry Wire Line
	1550 5450 1650 5350
Entry Wire Line
	1550 5550 1650 5450
Entry Wire Line
	1550 5650 1650 5550
Entry Wire Line
	1550 5750 1650 5650
Entry Wire Line
	1550 5850 1650 5750
Entry Wire Line
	1550 5950 1650 5850
Entry Wire Line
	1550 6050 1650 5950
Entry Wire Line
	1550 6150 1650 6050
Entry Wire Line
	1550 6250 1650 6150
Wire Wire Line
	2100 5350 1650 5350
Wire Wire Line
	2100 5450 1650 5450
Wire Wire Line
	1650 5550 2100 5550
Wire Wire Line
	2100 5650 1650 5650
Wire Wire Line
	2100 5750 1650 5750
Wire Wire Line
	1650 5850 2100 5850
Wire Wire Line
	2100 5950 1650 5950
Wire Wire Line
	2100 6050 1650 6050
Wire Wire Line
	2100 6150 1650 6150
Text Label 1850 5350 2    60   ~ 0
RA0
Text Label 1850 5450 2    60   ~ 0
RA1
Text Label 1850 5550 2    60   ~ 0
RA2
Text Label 1850 5650 2    60   ~ 0
RA3
Text Label 1850 5750 2    60   ~ 0
RA4
Text Label 1850 5850 2    60   ~ 0
RA5
Text Label 1850 5950 2    60   ~ 0
RA6
Text Label 1850 6050 2    60   ~ 0
RA7
Text Label 1850 6150 2    60   ~ 0
RA8
$Comp
L GND #PWR?
U 1 1 5A1A7E32
P 1850 6600
F 0 "#PWR?" H 1850 6600 30  0001 C CNN
F 1 "GND" H 1850 6530 30  0001 C CNN
F 2 "" H 1850 6600 60  0000 C CNN
F 3 "" H 1850 6600 60  0000 C CNN
	1    1850 6600
	1    0    0    -1  
$EndComp
$Comp
L VCC #PWR?
U 1 1 5A1A7E41
P 3300 6000
F 0 "#PWR?" H 3300 6100 30  0001 C CNN
F 1 "VCC" H 3300 6100 30  0000 C CNN
F 2 "" H 3300 6000 60  0000 C CNN
F 3 "" H 3300 6000 60  0000 C CNN
	1    3300 6000
	1    0    0    -1  
$EndComp
Wire Wire Line
	2100 6350 1850 6350
Wire Wire Line
	1850 6350 1850 6600
Wire Wire Line
	3100 6350 3300 6350
Wire Wire Line
	3300 6350 3300 6000
Text Label 3400 4750 2    60   ~ 0
VID4
Text Label 5500 4750 2    60   ~ 0
VID5
Text Label 7850 4750 2    60   ~ 0
VID6
Text Label 10000 4750 2    60   ~ 0
VID7
Wire Wire Line
	4250 4950 3400 4950
Wire Wire Line
	3400 4950 3400 6750
Wire Wire Line
	1150 6750 7700 6750
Connection ~ 1150 4950
Wire Wire Line
	3450 5050 4250 5050
Wire Wire Line
	3450 5050 3450 6800
Wire Wire Line
	1100 6800 7750 6800
Connection ~ 1100 5050
Wire Wire Line
	4250 5150 3500 5150
Wire Wire Line
	3500 5150 3500 6850
Wire Wire Line
	1050 6850 7800 6850
Connection ~ 1050 5150
Entry Wire Line
	3800 5450 3900 5350
Entry Wire Line
	3800 5550 3900 5450
Entry Wire Line
	3800 5650 3900 5550
Entry Wire Line
	3800 5750 3900 5650
Entry Wire Line
	3800 5850 3900 5750
Entry Wire Line
	3800 5950 3900 5850
Entry Wire Line
	3800 6050 3900 5950
Entry Wire Line
	3800 6150 3900 6050
Entry Wire Line
	3800 6250 3900 6150
Wire Wire Line
	4250 5350 3900 5350
Wire Wire Line
	4250 5450 3900 5450
Wire Wire Line
	4250 5550 3900 5550
Wire Wire Line
	4250 5650 3900 5650
Wire Wire Line
	3900 5750 4250 5750
Wire Wire Line
	4250 5850 3900 5850
Wire Wire Line
	3900 5950 4250 5950
Wire Wire Line
	4250 6050 3900 6050
Wire Wire Line
	3900 6150 4250 6150
Text Label 4100 5350 2    60   ~ 0
RA0
Text Label 4100 5450 2    60   ~ 0
RA1
Text Label 4100 5550 2    60   ~ 0
RA2
Text Label 4100 5650 2    60   ~ 0
RA3
Text Label 4100 5750 2    60   ~ 0
RA4
Text Label 4100 5850 2    60   ~ 0
RA5
Text Label 4100 5950 2    60   ~ 0
RA6
Text Label 4100 6050 2    60   ~ 0
RA7
Text Label 4100 6150 2    60   ~ 0
RA8
$Comp
L GND #PWR?
U 1 1 5A1A892B
P 4050 6600
F 0 "#PWR?" H 4050 6600 30  0001 C CNN
F 1 "GND" H 4050 6530 30  0001 C CNN
F 2 "" H 4050 6600 60  0000 C CNN
F 3 "" H 4050 6600 60  0000 C CNN
	1    4050 6600
	1    0    0    -1  
$EndComp
$Comp
L VCC #PWR?
U 1 1 5A1A893A
P 5400 6050
F 0 "#PWR?" H 5400 6150 30  0001 C CNN
F 1 "VCC" H 5400 6150 30  0000 C CNN
F 2 "" H 5400 6050 60  0000 C CNN
F 3 "" H 5400 6050 60  0000 C CNN
	1    5400 6050
	1    0    0    -1  
$EndComp
Wire Wire Line
	4250 6350 4050 6350
Wire Wire Line
	4050 6350 4050 6600
Wire Wire Line
	5250 6350 5400 6350
Wire Wire Line
	5400 6350 5400 6050
Wire Wire Line
	6450 4950 5500 4950
Wire Wire Line
	5500 4950 5500 6750
Connection ~ 3400 6750
Wire Wire Line
	5550 5050 6450 5050
Wire Wire Line
	5550 6800 5550 5050
Connection ~ 3450 6800
Wire Wire Line
	6450 5150 5600 5150
Wire Wire Line
	5600 5150 5600 6850
Connection ~ 3500 6850
Entry Wire Line
	6000 5450 6100 5350
Entry Wire Line
	6000 5550 6100 5450
Entry Wire Line
	6000 5650 6100 5550
Entry Wire Line
	6000 5750 6100 5650
Entry Wire Line
	6000 5850 6100 5750
Entry Wire Line
	6000 5950 6100 5850
Entry Wire Line
	6000 6050 6100 5950
Entry Wire Line
	6000 6150 6100 6050
Entry Wire Line
	6000 6250 6100 6150
Wire Wire Line
	6450 5350 6100 5350
Wire Wire Line
	6100 5450 6450 5450
Wire Wire Line
	6450 5550 6100 5550
Wire Wire Line
	6100 5650 6450 5650
Wire Wire Line
	6450 5750 6100 5750
Wire Wire Line
	6100 5850 6450 5850
Wire Wire Line
	6450 5950 6100 5950
Wire Wire Line
	6100 6050 6450 6050
Wire Wire Line
	6450 6150 6100 6150
Text Label 6300 5350 2    60   ~ 0
RA0
Text Label 6300 5450 2    60   ~ 0
RA1
Text Label 6300 5550 2    60   ~ 0
RA2
Text Label 6300 5650 2    60   ~ 0
RA3
Text Label 6300 5750 2    60   ~ 0
RA4
Text Label 6300 5850 2    60   ~ 0
RA5
Text Label 6300 5950 2    60   ~ 0
RA6
Text Label 6300 6050 2    60   ~ 0
RA7
Text Label 6300 6150 2    60   ~ 0
RA8
$Comp
L GND #PWR?
U 1 1 5A1A94E7
P 6300 6600
F 0 "#PWR?" H 6300 6600 30  0001 C CNN
F 1 "GND" H 6300 6530 30  0001 C CNN
F 2 "" H 6300 6600 60  0000 C CNN
F 3 "" H 6300 6600 60  0000 C CNN
	1    6300 6600
	1    0    0    -1  
$EndComp
$Comp
L VCC #PWR?
U 1 1 5A1A94F6
P 7600 6050
F 0 "#PWR?" H 7600 6150 30  0001 C CNN
F 1 "VCC" H 7600 6150 30  0000 C CNN
F 2 "" H 7600 6050 60  0000 C CNN
F 3 "" H 7600 6050 60  0000 C CNN
	1    7600 6050
	1    0    0    -1  
$EndComp
Wire Wire Line
	6450 6350 6300 6350
Wire Wire Line
	6300 6350 6300 6600
Wire Wire Line
	7450 6350 7600 6350
Wire Wire Line
	7600 6350 7600 6050
Wire Wire Line
	8600 4950 7700 4950
Wire Wire Line
	7700 4950 7700 6750
Connection ~ 5500 6750
Wire Wire Line
	8600 5050 7750 5050
Wire Wire Line
	7750 5050 7750 6800
Connection ~ 5550 6800
Wire Wire Line
	8600 5150 7800 5150
Wire Wire Line
	7800 5150 7800 6850
Connection ~ 5600 6850
Entry Wire Line
	8200 5450 8300 5350
Entry Wire Line
	8200 5550 8300 5450
Entry Wire Line
	8200 5650 8300 5550
Entry Wire Line
	8200 5750 8300 5650
Entry Wire Line
	8200 5850 8300 5750
Entry Wire Line
	8200 5950 8300 5850
Entry Wire Line
	8200 6050 8300 5950
Entry Wire Line
	8200 6150 8300 6050
Entry Wire Line
	8200 6250 8300 6150
Wire Wire Line
	8600 5350 8300 5350
Wire Wire Line
	8300 5450 8600 5450
Wire Wire Line
	8600 5550 8300 5550
Wire Wire Line
	8300 5650 8600 5650
Wire Wire Line
	8600 5750 8300 5750
Wire Wire Line
	8300 5850 8600 5850
Wire Wire Line
	8600 5950 8300 5950
Wire Wire Line
	8300 6050 8600 6050
Wire Wire Line
	8600 6150 8300 6150
Text Label 8450 5350 2    60   ~ 0
RA0
Text Label 8500 5450 2    60   ~ 0
RA1
Text Label 8500 5550 2    60   ~ 0
RA2
Text Label 8500 5650 2    60   ~ 0
RA3
Text Label 8500 5750 2    60   ~ 0
RA4
Text Label 8500 5850 2    60   ~ 0
RA5
Text Label 8500 5950 2    60   ~ 0
RA6
Text Label 8500 6050 2    60   ~ 0
RA7
Text Label 8500 6150 2    60   ~ 0
RA8
$Comp
L GND #PWR?
U 1 1 5A1AA070
P 8450 6600
F 0 "#PWR?" H 8450 6600 30  0001 C CNN
F 1 "GND" H 8450 6530 30  0001 C CNN
F 2 "" H 8450 6600 60  0000 C CNN
F 3 "" H 8450 6600 60  0000 C CNN
	1    8450 6600
	1    0    0    -1  
$EndComp
$Comp
L VCC #PWR?
U 1 1 5A1AA07F
P 9700 6150
F 0 "#PWR?" H 9700 6250 30  0001 C CNN
F 1 "VCC" H 9700 6250 30  0000 C CNN
F 2 "" H 9700 6150 60  0000 C CNN
F 3 "" H 9700 6150 60  0000 C CNN
	1    9700 6150
	1    0    0    -1  
$EndComp
Wire Wire Line
	8600 6350 8450 6350
Wire Wire Line
	8450 6350 8450 6600
Wire Wire Line
	9600 6350 9700 6350
Wire Wire Line
	9700 6350 9700 6150
$EndSCHEMATC
